contador/contador/simulation/qsim/contador.msim.vcd
$comment
	File created using the following command:
		vcd file contador.msim.vcd -direction
$end
$date
	Tue Feb 13 15:45:50 2024
$end
$version
	Questa Intel Starter FPGA Edition Version 2021.2
$end
$timescale
	1ps
$end

$scope module practica1_vhd_vec_tst $end
$var wire 1 ! CLK $end
$var wire 1 " F $end
$var wire 1 # HEX0 [7] $end
$var wire 1 $ HEX0 [6] $end
$var wire 1 % HEX0 [5] $end
$var wire 1 & HEX0 [4] $end
$var wire 1 ' HEX0 [3] $end
$var wire 1 ( HEX0 [2] $end
$var wire 1 ) HEX0 [1] $end
$var wire 1 * HEX0 [0] $end
$var wire 1 + HEX1 [7] $end
$var wire 1 , HEX1 [6] $end
$var wire 1 - HEX1 [5] $end
$var wire 1 . HEX1 [4] $end
$var wire 1 / HEX1 [3] $end
$var wire 1 0 HEX1 [2] $end
$var wire 1 1 HEX1 [1] $end
$var wire 1 2 HEX1 [0] $end
$var wire 1 3 HEX2 [7] $end
$var wire 1 4 HEX2 [6] $end
$var wire 1 5 HEX2 [5] $end
$var wire 1 6 HEX2 [4] $end
$var wire 1 7 HEX2 [3] $end
$var wire 1 8 HEX2 [2] $end
$var wire 1 9 HEX2 [1] $end
$var wire 1 : HEX2 [0] $end
$var wire 1 ; HEX3 [7] $end
$var wire 1 < HEX3 [6] $end
$var wire 1 = HEX3 [5] $end
$var wire 1 > HEX3 [4] $end
$var wire 1 ? HEX3 [3] $end
$var wire 1 @ HEX3 [2] $end
$var wire 1 A HEX3 [1] $end
$var wire 1 B HEX3 [0] $end
$var wire 1 C INI $end

$scope module i1 $end
$var wire 1 D vcc $end
$var wire 1 E devoe $end
$var wire 1 F devclrn $end
$var wire 1 G devpor $end
$var wire 1 H ww_devoe $end
$var wire 1 I ww_devclrn $end
$var wire 1 J ww_devpor $end
$var wire 1 K ww_F $end
$var wire 1 L ww_INI $end
$var wire 1 M ww_CLK $end
$var wire 1 N \~QUARTUS_CREATED_ADC1~_CHSEL_bus\ [4] $end
$var wire 1 O \~QUARTUS_CREATED_ADC1~_CHSEL_bus\ [3] $end
$var wire 1 P \~QUARTUS_CREATED_ADC1~_CHSEL_bus\ [2] $end
$var wire 1 Q \~QUARTUS_CREATED_ADC1~_CHSEL_bus\ [1] $end
$var wire 1 R \~QUARTUS_CREATED_ADC1~_CHSEL_bus\ [0] $end
$var wire 1 S \inst5|CLK~clkctrl_INCLK_bus\ [3] $end
$var wire 1 T \inst5|CLK~clkctrl_INCLK_bus\ [2] $end
$var wire 1 U \inst5|CLK~clkctrl_INCLK_bus\ [1] $end
$var wire 1 V \inst5|CLK~clkctrl_INCLK_bus\ [0] $end
$var wire 1 W \CLK~inputclkctrl_INCLK_bus\ [3] $end
$var wire 1 X \CLK~inputclkctrl_INCLK_bus\ [2] $end
$var wire 1 Y \CLK~inputclkctrl_INCLK_bus\ [1] $end
$var wire 1 Z \CLK~inputclkctrl_INCLK_bus\ [0] $end
$var wire 1 [ \HEX0[7]~input_o\ $end
$var wire 1 \ \HEX0[6]~input_o\ $end
$var wire 1 ] \HEX0[5]~input_o\ $end
$var wire 1 ^ \HEX0[4]~input_o\ $end
$var wire 1 _ \HEX0[3]~input_o\ $end
$var wire 1 ` \HEX0[2]~input_o\ $end
$var wire 1 a \HEX0[1]~input_o\ $end
$var wire 1 b \HEX0[0]~input_o\ $end
$var wire 1 c \HEX1[7]~input_o\ $end
$var wire 1 d \HEX1[6]~input_o\ $end
$var wire 1 e \HEX1[5]~input_o\ $end
$var wire 1 f \HEX1[4]~input_o\ $end
$var wire 1 g \HEX1[3]~input_o\ $end
$var wire 1 h \HEX1[2]~input_o\ $end
$var wire 1 i \HEX1[1]~input_o\ $end
$var wire 1 j \HEX1[0]~input_o\ $end
$var wire 1 k \HEX2[7]~input_o\ $end
$var wire 1 l \HEX2[6]~input_o\ $end
$var wire 1 m \HEX2[5]~input_o\ $end
$var wire 1 n \HEX2[4]~input_o\ $end
$var wire 1 o \HEX2[3]~input_o\ $end
$var wire 1 p \HEX2[2]~input_o\ $end
$var wire 1 q \HEX2[1]~input_o\ $end
$var wire 1 r \HEX2[0]~input_o\ $end
$var wire 1 s \HEX3[7]~input_o\ $end
$var wire 1 t \HEX3[6]~input_o\ $end
$var wire 1 u \HEX3[5]~input_o\ $end
$var wire 1 v \HEX3[4]~input_o\ $end
$var wire 1 w \HEX3[3]~input_o\ $end
$var wire 1 x \HEX3[2]~input_o\ $end
$var wire 1 y \HEX3[1]~input_o\ $end
$var wire 1 z \HEX3[0]~input_o\ $end
$var wire 1 { \~QUARTUS_CREATED_GND~I_combout\ $end
$var wire 1 | \~QUARTUS_CREATED_UNVM~~busy\ $end
$var wire 1 } \~QUARTUS_CREATED_ADC1~~eoc\ $end
$var wire 1 ~ \~QUARTUS_CREATED_ADC2~~eoc\ $end
$var wire 1 !! \HEX0[7]~output_o\ $end
$var wire 1 "! \HEX0[6]~output_o\ $end
$var wire 1 #! \HEX0[5]~output_o\ $end
$var wire 1 $! \HEX0[4]~output_o\ $end
$var wire 1 %! \HEX0[3]~output_o\ $end
$var wire 1 &! \HEX0[2]~output_o\ $end
$var wire 1 '! \HEX0[1]~output_o\ $end
$var wire 1 (! \HEX0[0]~output_o\ $end
$var wire 1 )! \HEX1[7]~output_o\ $end
$var wire 1 *! \HEX1[6]~output_o\ $end
$var wire 1 +! \HEX1[5]~output_o\ $end
$var wire 1 ,! \HEX1[4]~output_o\ $end
$var wire 1 -! \HEX1[3]~output_o\ $end
$var wire 1 .! \HEX1[2]~output_o\ $end
$var wire 1 /! \HEX1[1]~output_o\ $end
$var wire 1 0! \HEX1[0]~output_o\ $end
$var wire 1 1! \HEX2[7]~output_o\ $end
$var wire 1 2! \HEX2[6]~output_o\ $end
$var wire 1 3! \HEX2[5]~output_o\ $end
$var wire 1 4! \HEX2[4]~output_o\ $end
$var wire 1 5! \HEX2[3]~output_o\ $end
$var wire 1 6! \HEX2[2]~output_o\ $end
$var wire 1 7! \HEX2[1]~output_o\ $end
$var wire 1 8! \HEX2[0]~output_o\ $end
$var wire 1 9! \HEX3[7]~output_o\ $end
$var wire 1 :! \HEX3[6]~output_o\ $end
$var wire 1 ;! \HEX3[5]~output_o\ $end
$var wire 1 <! \HEX3[4]~output_o\ $end
$var wire 1 =! \HEX3[3]~output_o\ $end
$var wire 1 >! \HEX3[2]~output_o\ $end
$var wire 1 ?! \HEX3[1]~output_o\ $end
$var wire 1 @! \HEX3[0]~output_o\ $end
$var wire 1 A! \CLK~input_o\ $end
$var wire 1 B! \CLK~inputclkctrl_outclk\ $end
$var wire 1 C! \inst5|Add0~0_combout\ $end
$var wire 1 D! \inst5|Add0~1\ $end
$var wire 1 E! \inst5|Add0~2_combout\ $end
$var wire 1 F! \inst5|Add0~3\ $end
$var wire 1 G! \inst5|Add0~4_combout\ $end
$var wire 1 H! \inst5|Add0~5\ $end
$var wire 1 I! \inst5|Add0~6_combout\ $end
$var wire 1 J! \inst5|Add0~7\ $end
$var wire 1 K! \inst5|Add0~8_combout\ $end
$var wire 1 L! \inst5|AUX~0_combout\ $end
$var wire 1 M! \inst5|Add0~9\ $end
$var wire 1 N! \inst5|Add0~10_combout\ $end
$var wire 1 O! \inst5|AUX~1_combout\ $end
$var wire 1 P! \inst5|Add0~11\ $end
$var wire 1 Q! \inst5|Add0~12_combout\ $end
$var wire 1 R! \inst5|AUX~2_combout\ $end
$var wire 1 S! \inst5|Add0~13\ $end
$var wire 1 T! \inst5|Add0~14_combout\ $end
$var wire 1 U! \inst5|Equal0~1_combout\ $end
$var wire 1 V! \inst5|Equal0~0_combout\ $end
$var wire 1 W! \inst5|Add0~15\ $end
$var wire 1 X! \inst5|Add0~16_combout\ $end
$var wire 1 Y! \inst5|AUX~3_combout\ $end
$var wire 1 Z! \inst5|Add0~17\ $end
$var wire 1 [! \inst5|Add0~18_combout\ $end
$var wire 1 \! \inst5|AUX~4_combout\ $end
$var wire 1 ]! \inst5|Add0~19\ $end
$var wire 1 ^! \inst5|Add0~20_combout\ $end
$var wire 1 _! \inst5|AUX~5_combout\ $end
$var wire 1 `! \inst5|Equal0~2_combout\ $end
$var wire 1 a! \inst5|Equal0~3_combout\ $end
$var wire 1 b! \inst5|Equal0~4_combout\ $end
$var wire 1 c! \inst5|Add0~21\ $end
$var wire 1 d! \inst5|Add0~22_combout\ $end
$var wire 1 e! \inst5|AUX~6_combout\ $end
$var wire 1 f! \inst5|Add0~23\ $end
$var wire 1 g! \inst5|Add0~24_combout\ $end
$var wire 1 h! \inst5|Add0~25\ $end
$var wire 1 i! \inst5|Add0~26_combout\ $end
$var wire 1 j! \inst5|AUX~7_combout\ $end
$var wire 1 k! \inst5|Add0~27\ $end
$var wire 1 l! \inst5|Add0~28_combout\ $end
$var wire 1 m! \inst5|Add0~29\ $end
$var wire 1 n! \inst5|Add0~30_combout\ $end
$var wire 1 o! \inst5|Add0~31\ $end
$var wire 1 p! \inst5|Add0~32_combout\ $end
$var wire 1 q! \inst5|Add0~33\ $end
$var wire 1 r! \inst5|Add0~34_combout\ $end
$var wire 1 s! \inst5|CLK~0_combout\ $end
$var wire 1 t! \inst5|CLK~feeder_combout\ $end
$var wire 1 u! \inst5|CLK~q\ $end
$var wire 1 v! \inst5|CLK~clkctrl_outclk\ $end
$var wire 1 w! \INI~input_o\ $end
$var wire 1 x! \inst|U~2_combout\ $end
$var wire 1 y! \inst|Add3~0_combout\ $end
$var wire 1 z! \inst|U~5_combout\ $end
$var wire 1 {! \inst|Equal3~0_combout\ $end
$var wire 1 |! \F~input_o\ $end
$var wire 1 }! \inst|Add2~0_combout\ $end
$var wire 1 ~! \inst|D[3]~1_combout\ $end
$var wire 1 !" \inst|D[3]~2_combout\ $end
$var wire 1 "" \inst|D[2]~4_combout\ $end
$var wire 1 #" \inst|Equal4~0_combout\ $end
$var wire 1 $" \inst|C~4_combout\ $end
$var wire 1 %" \inst|C[0]~5_combout\ $end
$var wire 1 &" \inst|C[0]~9_combout\ $end
$var wire 1 '" \inst|C[3]~10_combout\ $end
$var wire 1 (" \inst|C[1]~6_combout\ $end
$var wire 1 )" \inst|Add1~0_combout\ $end
$var wire 1 *" \inst|C[2]~7_combout\ $end
$var wire 1 +" \inst|Add1~1_combout\ $end
$var wire 1 ," \inst|C[3]~8_combout\ $end
$var wire 1 -" \inst|M~0_combout\ $end
$var wire 1 ." \inst|M~1_combout\ $end
$var wire 1 /" \inst|M[0]~2_combout\ $end
$var wire 1 0" \inst|M[0]~3_combout\ $end
$var wire 1 1" \inst|Add0~0_combout\ $end
$var wire 1 2" \inst|M[2]~7_combout\ $end
$var wire 1 3" \inst|Add0~1_combout\ $end
$var wire 1 4" \inst|M[3]~8_combout\ $end
$var wire 1 5" \inst|M[0]~4_combout\ $end
$var wire 1 6" \inst|M[3]~5_combout\ $end
$var wire 1 7" \inst|M[1]~6_combout\ $end
$var wire 1 8" \inst|process_0~0_combout\ $end
$var wire 1 9" \inst|process_0~2_combout\ $end
$var wire 1 :" \inst|process_0~1_combout\ $end
$var wire 1 ;" \inst|process_0~3_combout\ $end
$var wire 1 <" \inst|RST~0_combout\ $end
$var wire 1 =" \inst|D[0]~0_combout\ $end
$var wire 1 >" \inst|D[1]~3_combout\ $end
$var wire 1 ?" \inst|Add2~1_combout\ $end
$var wire 1 @" \inst|D[3]~5_combout\ $end
$var wire 1 A" \inst|U[2]~3_combout\ $end
$var wire 1 B" \inst|U~4_combout\ $end
$var wire 1 C" \inst|U~6_combout\ $end
$var wire 1 D" \inst6|Mux0~0_combout\ $end
$var wire 1 E" \inst6|Mux1~0_combout\ $end
$var wire 1 F" \inst6|Mux2~0_combout\ $end
$var wire 1 G" \inst6|Mux3~0_combout\ $end
$var wire 1 H" \inst6|Mux4~0_combout\ $end
$var wire 1 I" \inst6|Mux5~0_combout\ $end
$var wire 1 J" \inst6|Mux6~0_combout\ $end
$var wire 1 K" \inst4|Mux0~0_combout\ $end
$var wire 1 L" \inst4|Mux1~0_combout\ $end
$var wire 1 M" \inst4|Mux2~0_combout\ $end
$var wire 1 N" \inst4|Mux3~0_combout\ $end
$var wire 1 O" \inst4|Mux4~0_combout\ $end
$var wire 1 P" \inst4|Mux5~0_combout\ $end
$var wire 1 Q" \inst4|Mux6~0_combout\ $end
$var wire 1 R" \inst3|Mux0~0_combout\ $end
$var wire 1 S" \inst3|Mux1~0_combout\ $end
$var wire 1 T" \inst3|Mux2~0_combout\ $end
$var wire 1 U" \inst3|Mux3~0_combout\ $end
$var wire 1 V" \inst3|Mux4~0_combout\ $end
$var wire 1 W" \inst3|Mux5~0_combout\ $end
$var wire 1 X" \inst3|Mux6~0_combout\ $end
$var wire 1 Y" \inst2|Mux0~0_combout\ $end
$var wire 1 Z" \inst2|Mux1~0_combout\ $end
$var wire 1 [" \inst2|Mux2~0_combout\ $end
$var wire 1 \" \inst2|Mux3~0_combout\ $end
$var wire 1 ]" \inst2|Mux4~0_combout\ $end
$var wire 1 ^" \inst2|Mux5~0_combout\ $end
$var wire 1 _" \inst2|Mux6~0_combout\ $end
$var wire 1 `" \inst|U\ [3] $end
$var wire 1 a" \inst|U\ [2] $end
$var wire 1 b" \inst|U\ [1] $end
$var wire 1 c" \inst|U\ [0] $end
$var wire 1 d" \inst|D\ [3] $end
$var wire 1 e" \inst|D\ [2] $end
$var wire 1 f" \inst|D\ [1] $end
$var wire 1 g" \inst|D\ [0] $end
$var wire 1 h" \inst|C\ [3] $end
$var wire 1 i" \inst|C\ [2] $end
$var wire 1 j" \inst|C\ [1] $end
$var wire 1 k" \inst|C\ [0] $end
$var wire 1 l" \inst5|AUX\ [17] $end
$var wire 1 m" \inst5|AUX\ [16] $end
$var wire 1 n" \inst5|AUX\ [15] $end
$var wire 1 o" \inst5|AUX\ [14] $end
$var wire 1 p" \inst5|AUX\ [13] $end
$var wire 1 q" \inst5|AUX\ [12] $end
$var wire 1 r" \inst5|AUX\ [11] $end
$var wire 1 s" \inst5|AUX\ [10] $end
$var wire 1 t" \inst5|AUX\ [9] $end
$var wire 1 u" \inst5|AUX\ [8] $end
$var wire 1 v" \inst5|AUX\ [7] $end
$var wire 1 w" \inst5|AUX\ [6] $end
$var wire 1 x" \inst5|AUX\ [5] $end
$var wire 1 y" \inst5|AUX\ [4] $end
$var wire 1 z" \inst5|AUX\ [3] $end
$var wire 1 {" \inst5|AUX\ [2] $end
$var wire 1 |" \inst5|AUX\ [1] $end
$var wire 1 }" \inst5|AUX\ [0] $end
$var wire 1 ~" \inst|M\ [3] $end
$var wire 1 !# \inst|M\ [2] $end
$var wire 1 "# \inst|M\ [1] $end
$var wire 1 ## \inst|M\ [0] $end
$var wire 1 $# \inst5|ALT_INV_CLK~clkctrl_outclk\ $end
$upscope $end
$upscope $end
$enddefinitions $end
#0
$dumpvars
0!
0"
1C
1D
1E
1F
1G
1H
1I
1J
0K
1L
0M
0[
0\
0]
0^
0_
0`
1a
1b
0c
0d
0e
0f
0g
0h
1i
1j
0k
0l
0m
0n
0o
0p
1q
1r
0s
0t
0u
0v
0w
0x
1y
1z
0{
z|
z}
z~
0!!
0"!
0#!
0$!
0%!
0&!
1'!
1(!
0)!
0*!
0+!
0,!
0-!
0.!
1/!
10!
01!
02!
03!
04!
05!
06!
17!
18!
09!
0:!
0;!
0<!
0=!
0>!
1?!
1@!
0A!
0B!
1C!
0D!
1E!
1F!
1G!
0H!
1I!
1J!
1K!
0L!
0M!
1N!
0O!
1P!
1Q!
0R!
0S!
1T!
1U!
1V!
1W!
1X!
0Y!
0Z!
1[!
0\!
1]!
1^!
0_!
1`!
1a!
1b!
0c!
1d!
0e!
1f!
1g!
0h!
1i!
0j!
1k!
1l!
0m!
1n!
1o!
1p!
0q!
1r!
1s!
1t!
0u!
0v!
1w!
0x!
0y!
0z!
1{!
0|!
0}!
0~!
0!"
0""
1#"
0$"
0%"
0&"
0'"
0("
0)"
0*"
0+"
0,"
0-"
1."
0/"
00"
01"
02"
03"
04"
15"
06"
07"
08"
09"
1:"
0;"
1<"
0="
0>"
0?"
0@"
0A"
0B"
0C"
0D"
0E"
0F"
0G"
0H"
0I"
1J"
0K"
0L"
0M"
0N"
0O"
0P"
1Q"
0R"
0S"
0T"
0U"
0V"
0W"
1X"
0Y"
0Z"
0["
0\"
0]"
0^"
1_"
1$#
0#
0$
0%
0&
0'
0(
1)
1*
0+
0,
0-
0.
0/
00
11
12
03
04
05
06
07
08
19
1:
0;
0<
0=
0>
0?
0@
1A
1B
0`"
0a"
0b"
0c"
0d"
0e"
0f"
0g"
0h"
0i"
0j"
0k"
0l"
0m"
0n"
0o"
0p"
0q"
0r"
0s"
0t"
0u"
0v"
0w"
0x"
0y"
0z"
0{"
0|"
0}"
0~"
0!#
0"#
0##
1W
1X
1Y
0Z
1S
1T
1U
0V
0N
0O
0P
0Q
0R
$end
#5000
1!
1M
1A!
1Z
1B!
1}"
1|"
1{"
1z"
1v"
1q"
1o"
1n"
1m"
1l"
1u!
1V
0r!
1L!
1O!
1R!
1Y!
1\!
1_!
1e!
1j!
0p!
1q!
0n!
0o!
0l!
1m!
0a!
0g!
1h!
0T!
0W!
0U!
0I!
0J!
0G!
1H!
0E!
0F!
0C!
1D!
0V!
1E!
1G!
1I!
0K!
1M!
0X!
1Z!
0i!
0k!
0b!
1n!
1p!
1r!
1v!
1l!
0j!
0[!
0]!
0Y!
0N!
0P!
0L!
0$#
0Q!
1S!
0O!
0^!
1c!
0\!
0d!
0f!
0_!
1T!
0R!
1g!
0e!
#10000
0!
0M
0A!
0Z
0B!
#15000
1!
1M
1A!
1Z
1B!
0}"
1C!
0D!
0E!
#20000
0!
0M
0A!
0Z
0B!
#25000
1!
1M
1A!
1Z
1B!
1}"
0|"
1E!
1F!
0C!
1D!
0E!
0F!
0G!
1G!
#30000
0!
0M
0A!
0Z
0B!
#35000
1!
1M
1A!
1Z
1B!
0}"
1C!
0D!
1E!
1F!
0G!
#40000
0!
0M
0A!
0Z
0B!
#45000
1!
1M
1A!
1Z
1B!
1}"
1|"
0{"
1G!
0H!
0E!
0F!
0C!
1D!
1E!
0G!
1H!
0I!
1I!
#50000
0!
0M
0A!
0Z
0B!
#55000
1!
1M
1A!
1Z
1B!
0}"
1C!
0D!
0E!
#60000
0!
0M
0A!
0Z
0B!
#65000
1!
1M
1A!
1Z
1B!
1}"
0|"
1E!
1F!
0C!
1D!
0E!
0F!
1G!
0H!
0I!
0G!
1H!
1I!
#70000
0!
0M
0A!
0Z
0B!
#75000
1!
1M
1A!
1Z
1B!
0}"
1C!
0D!
1E!
1F!
1G!
0H!
0I!
#80000
0!
0M
0A!
0Z
0B!
#85000
1!
1M
1A!
1Z
1B!
1}"
1|"
1{"
0z"
1I!
1J!
0G!
1H!
0E!
0F!
0C!
1D!
1E!
1G!
0I!
0J!
1K!
0M!
1N!
1P!
1L!
0K!
1M!
0N!
0P!
0L!
1Q!
0S!
1O!
0T!
1R!
0Q!
1S!
0O!
1T!
0R!
#90000
0!
0M
0A!
0Z
0B!
#95000
1!
1M
1A!
1Z
1B!
0}"
1C!
0D!
0E!
#100000
0!
0M
0A!
0Z
0B!
#105000
1!
1M
1A!
1Z
1B!
1}"
0|"
1E!
1F!
0C!
1D!
0E!
0F!
0G!
1G!
#110000
0!
0M
0A!
0Z
0B!
#115000
1!
1M
1A!
1Z
1B!
0}"
1C!
0D!
1E!
1F!
0G!
#120000
0!
0M
0A!
0Z
0B!
#125000
1!
1M
1A!
1Z
1B!
1}"
1|"
0{"
1G!
0H!
0E!
0F!
0C!
1D!
1E!
0G!
1H!
1I!
1J!
1K!
0M!
0I!
0J!
0K!
1M!
1N!
1P!
1L!
1Q!
0S!
1O!
0N!
0P!
0L!
0Q!
1S!
0O!
0T!
1R!
1T!
0R!
#130000
0!
0M
0A!
0Z
0B!
#135000
1!
1M
1A!
1Z
1B!
0}"
1C!
0D!
0E!
#140000
0!
0M
0A!
0Z
0B!
#145000
1!
1M
1A!
1Z
1B!
1}"
0|"
1E!
1F!
0C!
1D!
0E!
0F!
1G!
0H!
1I!
1J!
0G!
1H!
0I!
0J!
1K!
0M!
1N!
1P!
1L!
0K!
1M!
0N!
0P!
0L!
1Q!
0S!
1O!
0T!
1R!
0Q!
1S!
0O!
1T!
0R!
#150000
0!
0M
0A!
0Z
0B!
#155000
1!
1M
1A!
1Z
1B!
0}"
1C!
0D!
1V!
1E!
1F!
1G!
0H!
1I!
1J!
1K!
0M!
1N!
1P!
1L!
1Q!
0S!
1O!
0T!
1R!
#160000
0!
0M
0A!
0Z
0B!
#165000
1!
1M
1A!
1Z
1B!
1}"
1|"
1{"
1z"
1y"
1x"
1w"
0v"
1T!
1W!
0Q!
1S!
0N!
0P!
0K!
1M!
0I!
0J!
0G!
1H!
0E!
0F!
0C!
1D!
0V!
1E!
1G!
1I!
1K!
1N!
0L!
1Q!
0O!
0T!
0W!
0R!
1X!
0Z!
1[!
1]!
1Y!
0X!
1Z!
1R!
1O!
1L!
0[!
0]!
0Y!
1^!
0c!
1\!
1d!
1f!
1_!
0^!
1c!
0\!
0d!
0f!
0_!
0g!
1e!
1g!
0e!
#170000
0!
0M
0A!
0Z
0B!
#175000
1!
1M
1A!
1Z
1B!
0}"
1C!
0D!
0E!
#180000
0!
0M
0A!
0Z
0B!
#185000
1!
1M
1A!
1Z
1B!
1}"
0|"
1E!
1F!
0C!
1D!
0E!
0F!
0G!
1G!
#190000
0!
0M
0A!
0Z
0B!
#195000
1!
1M
1A!
1Z
1B!
0}"
1C!
0D!
1E!
1F!
0G!
#200000
0!
0M
0A!
0Z
0B!
#205000
1!
1M
1A!
1Z
1B!
1}"
1|"
0{"
1G!
0H!
0E!
0F!
0C!
1D!
1E!
0G!
1H!
0I!
1I!
#210000
0!
0M
0A!
0Z
0B!
#215000
1!
1M
1A!
1Z
1B!
0}"
1C!
0D!
0E!
#220000
0!
0M
0A!
0Z
0B!
#225000
1!
1M
1A!
1Z
1B!
1}"
0|"
1E!
1F!
0C!
1D!
0E!
0F!
1G!
0H!
0I!
0G!
1H!
1I!
#230000
0!
0M
0A!
0Z
0B!
#235000
1!
1M
1A!
1Z
1B!
0}"
1C!
0D!
1E!
1F!
1G!
0H!
0I!
#240000
0!
0M
0A!
0Z
0B!
#245000
1!
1M
1A!
1Z
1B!
1}"
1|"
1{"
0z"
1I!
1J!
0G!
1H!
0E!
0F!
0C!
1D!
1E!
1G!
0I!
0J!
0K!
0L!
1K!
1L!
#250000
0!
0M
0A!
0Z
0B!
#255000
1!
1M
1A!
1Z
1B!
0}"
1C!
0D!
0E!
#260000
0!
0M
0A!
0Z
0B!
#265000
1!
1M
1A!
1Z
1B!
1}"
0|"
1E!
1F!
0C!
1D!
0E!
0F!
0G!
1G!
#270000
0!
0M
0A!
0Z
0B!
#275000
1!
1M
1A!
1Z
1B!
0}"
1C!
0D!
1E!
1F!
0G!
#280000
0!
0M
0A!
0Z
0B!
#285000
1!
1M
1A!
1Z
1B!
1}"
1|"
0{"
1G!
0H!
0E!
0F!
0C!
1D!
1E!
0G!
1H!
1I!
1J!
0K!
0I!
0J!
1K!
0L!
1L!
#290000
0!
0M
0A!
0Z
0B!
#295000
1!
1M
1A!
1Z
1B!
0}"
1C!
0D!
0E!
#300000
0!
0M
0A!
0Z
0B!
#305000
1!
1M
1A!
1Z
1B!
1}"
0|"
1E!
1F!
0C!
1D!
0E!
0F!
1G!
0H!
1I!
1J!
0G!
1H!
0I!
0J!
0K!
0L!
1K!
1L!
#310000
0!
0M
0A!
0Z
0B!
#315000
1!
1M
1A!
1Z
1B!
0}"
1C!
0D!
1V!
1E!
1F!
1G!
0H!
1I!
1J!
0K!
0L!
#320000
0!
0M
0A!
0Z
0B!
#325000
1!
1M
1A!
1Z
1B!
1}"
1|"
1{"
1z"
0y"
1K!
0M!
0I!
0J!
0G!
1H!
0E!
0F!
0C!
1D!
0V!
1E!
1G!
1I!
0K!
1M!
0N!
1L!
0O!
1N!
0L!
1O!
#330000
0!
0M
0A!
0Z
0B!
#335000
1!
1M
1A!
1Z
1B!
0}"
1C!
0D!
0E!
#340000
0!
0M
0A!
0Z
0B!
#345000
1!
1M
1A!
1Z
1B!
1}"
0|"
1E!
1F!
0C!
1D!
0E!
0F!
0G!
1G!
#350000
0!
0M
0A!
0Z
0B!
#355000
1!
1M
1A!
1Z
1B!
0}"
1C!
0D!
1E!
1F!
0G!
#360000
0!
0M
0A!
0Z
0B!
#365000
1!
1M
1A!
1Z
1B!
1}"
1|"
0{"
1G!
0H!
0E!
0F!
0C!
1D!
1E!
0G!
1H!
0I!
1I!
#370000
0!
0M
0A!
0Z
0B!
#375000
1!
1M
1A!
1Z
1B!
0}"
1C!
0D!
0E!
#380000
0!
0M
0A!
0Z
0B!
#385000
1!
1M
1A!
1Z
1B!
1}"
0|"
1E!
1F!
0C!
1D!
0E!
0F!
1G!
0H!
0I!
0G!
1H!
1I!
#390000
0!
0M
0A!
0Z
0B!
#395000
1!
1M
1A!
1Z
1B!
0}"
1C!
0D!
1E!
1F!
1G!
0H!
0I!
#400000
0!
0M
0A!
0Z
0B!
#405000
1!
1M
1A!
1Z
1B!
1}"
1|"
1{"
0z"
1I!
1J!
0G!
1H!
0E!
0F!
0C!
1D!
1E!
1G!
0I!
0J!
1K!
0M!
0N!
1L!
0K!
1M!
1N!
0L!
0O!
1O!
#410000
0!
0M
0A!
0Z
0B!
#415000
1!
1M
1A!
1Z
1B!
0}"
1C!
0D!
0E!
#420000
0!
0M
0A!
0Z
0B!
#425000
1!
1M
1A!
1Z
1B!
1}"
0|"
1E!
1F!
0C!
1D!
0E!
0F!
0G!
1G!
#430000
0!
0M
0A!
0Z
0B!
#435000
1!
1M
1A!
1Z
1B!
0}"
1C!
0D!
1E!
1F!
0G!
#440000
0!
0M
0A!
0Z
0B!
#445000
1!
1M
1A!
1Z
1B!
1}"
1|"
0{"
1G!
0H!
0E!
0F!
0C!
1D!
1E!
0G!
1H!
1I!
1J!
1K!
0M!
0I!
0J!
0K!
1M!
0N!
1L!
0O!
1N!
0L!
1O!
#450000
0!
0M
0A!
0Z
0B!
#455000
1!
1M
1A!
1Z
1B!
0}"
1C!
0D!
0E!
#460000
0!
0M
0A!
0Z
0B!
#465000
1!
1M
1A!
1Z
1B!
1}"
0|"
1E!
1F!
0C!
1D!
0E!
0F!
1G!
0H!
1I!
1J!
0G!
1H!
0I!
0J!
1K!
0M!
0N!
1L!
0K!
1M!
1N!
0L!
0O!
1O!
#470000
0!
0M
0A!
0Z
0B!
#475000
1!
1M
1A!
1Z
1B!
0}"
1C!
0D!
1V!
1E!
1F!
1G!
0H!
1I!
1J!
1K!
0M!
0N!
1L!
0O!
#480000
0!
0M
0A!
0Z
0B!
#485000
1!
1M
1A!
1Z
1B!
1}"
1|"
1{"
1z"
1y"
0x"
1N!
1P!
0K!
1M!
0I!
0J!
0G!
1H!
0E!
0F!
0C!
1D!
0V!
1E!
1G!
1I!
1K!
0N!
0P!
0L!
0Q!
1O!
0R!
1Q!
0O!
1L!
1R!
#490000
0!
0M
0A!
0Z
0B!
#495000
1!
1M
1A!
1Z
1B!
0}"
1C!
0D!
0E!
#500000
0!
0M
0A!
0Z
0B!
#505000
1!
1M
1A!
1Z
1B!
1}"
0|"
1E!
1F!
0C!
1D!
0E!
0F!
0G!
1G!
#510000
0!
0M
0A!
0Z
0B!
#515000
1!
1M
1A!
1Z
1B!
0}"
1C!
0D!
1E!
1F!
0G!
#520000
0!
0M
0A!
0Z
0B!
#525000
1!
1M
1A!
1Z
1B!
1}"
1|"
0{"
1G!
0H!
0E!
0F!
0C!
1D!
1E!
0G!
1H!
0I!
1I!
#530000
0!
0M
0A!
0Z
0B!
#535000
1!
1M
1A!
1Z
1B!
0}"
1C!
0D!
0E!
#540000
0!
0M
0A!
0Z
0B!
#545000
1!
1M
1A!
1Z
1B!
1}"
0|"
1E!
1F!
0C!
1D!
0E!
0F!
1G!
0H!
0I!
0G!
1H!
1I!
#550000
0!
0M
0A!
0Z
0B!
#555000
1!
1M
1A!
1Z
1B!
0}"
1C!
0D!
1E!
1F!
1G!
0H!
0I!
#560000
0!
0M
0A!
0Z
0B!
#565000
1!
1M
1A!
1Z
1B!
1}"
1|"
1{"
0z"
1I!
1J!
0G!
1H!
0E!
0F!
0C!
1D!
1E!
1G!
0I!
0J!
0K!
0L!
1K!
1L!
#570000
0!
0M
0A!
0Z
0B!
#575000
1!
1M
1A!
1Z
1B!
0}"
1C!
0D!
0E!
#580000
0!
0M
0A!
0Z
0B!
#585000
1!
1M
1A!
1Z
1B!
1}"
0|"
1E!
1F!
0C!
1D!
0E!
0F!
0G!
1G!
#590000
0!
0M
0A!
0Z
0B!
#595000
1!
1M
1A!
1Z
1B!
0}"
1C!
0D!
1E!
1F!
0G!
#600000
0!
0M
0A!
0Z
0B!
#605000
1!
1M
1A!
1Z
1B!
1}"
1|"
0{"
1G!
0H!
0E!
0F!
0C!
1D!
1E!
0G!
1H!
1I!
1J!
0K!
0I!
0J!
1K!
0L!
1L!
#610000
0!
0M
0A!
0Z
0B!
#615000
1!
1M
1A!
1Z
1B!
0}"
1C!
0D!
0E!
#620000
0!
0M
0A!
0Z
0B!
#625000
1!
1M
1A!
1Z
1B!
1}"
0|"
1E!
1F!
0C!
1D!
0E!
0F!
1G!
0H!
1I!
1J!
0G!
1H!
0I!
0J!
0K!
0L!
1K!
1L!
#630000
0!
0M
0A!
0Z
0B!
#635000
1!
1M
1A!
1Z
1B!
0}"
1C!
0D!
1V!
1E!
1F!
1G!
0H!
1I!
1J!
0K!
0L!
#640000
0!
0M
0A!
0Z
0B!
